<?xml version="1.0" encoding="utf-8"?>
<!-- Generator: Adobe Illustrator 26.0.1, SVG Export Plug-In . SVG Version: 6.00 Build 0)  -->
<svg version="1.1" id="Слой_1" xmlns="http://www.w3.org/2000/svg" xmlns:xlink="http://www.w3.org/1999/xlink" x="0px" y="0px"
	 viewBox="0 0 32 32" style="enable-background:new 0 0 32 32;" xml:space="preserve">
<style type="text/css">
	.st0{fill-rule:evenodd;clip-rule:evenodd;fill:#FFFFFF;}
</style>
<path id="Vintage_Luxury_Arrow_Right" class="st0" d="M30.5,16.2L24,9.6c-0.2-0.2-0.5-0.3-0.8-0.3l0,0H1.5c-0.8,0-1.2,1-0.7,1.6
	l5.8,5.9L1,22.6c-0.7,0.7-0.4,1.7,0.8,1.7h21.5c0.3,0,0.6-0.1,0.8-0.3l6.5-6.6C30.9,17.1,30.9,16.6,30.5,16.2z"/>
</svg>
